{
  "name": "movefiles",
  "phrase": "movefiles",
  "description": "This action is for moving files from source to destination after files are downloaded to repository",
  "inputSchema": {
    "type": "object",
    "properties": {
      "source": {
        "type": "string"
      },
      "dest": {
        "type": "string"
      },
      "filesFound": {
        "type": "boolean"
      },
      "saveFileResponse": {
        "type": "array",
        "title": "savefileresponse",
        "items": {
          "type": "object",
          "properties": {}
        }
      }
    },
    "title": "Input",
    "_de": {
      "views": []
    }
  },
  "outputSchema": {
    "type": "object",
    "properties": {
          "filesFound": {
            "type": "boolean"
          },
          "fileObjList": {
            "type": "array",
            "title": "fileObjlist",
            "items": {
              "type": "object",
              "properties": {}
            }
          }
    }
  },
  "role": "Admin"
}