{
  "name": "scac",
  "phrase": "scac",
  "description": "This bot will identify the extracted SCAC code and match with the SCAC dataset if a match is found it will return the extracted SCAC code. otherwise, it will through the default SCAC code",
  "inputSchema": {
    "type": "object",
    "properties": {
      "dataSetName":{"type": "string"},
      "extractedData": {
        "type": "object",
        "title": "extractedData",
        "properties": {}
      },
      "possibleMatchLimit": {
        "type": "number"
      },
      "bolThresHoldLowest": {
        "type": "number"
      },
      "bolThresHoldHighest": {
        "type": "number"
      },
      "refThresHold": {
        "type": "number"
      },
      "extRefThresHold": {
        "type": "number"
      },
      "trailerNumberDefault": {
        "type": "string"
      },
      "driverNameDefault": {
        "type": "string"
      },
      "scacDefault": {
        "type": "string"
      }
    },
    "title": "Input",
    "_de": {
      "views": []
    }
  },
  "outputSchema": {
    "type": "object",
    "properties": {
      "scacResponse": {
        "type": "object",
        "title": "scacResponse",
        "properties": {}
      }
    }
  },
  "role": "Admin"
}